{
  "images" : [
    {
      "idiom" : "universal",
      "filename" : "1482928369_icon-ios7-undo.png",
      "scale" : "1x"
    },
    {
      "idiom" : "universal",
      "filename" : "1482928372_icon-ios7-undo.png",
      "scale" : "2x"
    },
    {
      "idiom" : "universal",
      "filename" : "1482928375_icon-ios7-undo.png",
      "scale" : "3x"
    }
  ],
  "info" : {
    "version" : 1,
    "author" : "xcode"
  }
}